%YAML 1.1
%TAG !u! tag:unity3d.com,2011:
--- !u!126 &1
NavMeshProjectSettings:
  m_ObjectHideFlags: 0
  serializedVersion: 2
  areas:
  - name: Walkable
    cost: 1
  - name: Not Walkable
    cost: 1
  - name: Jump
    cost: 2
  - name: 
    cost: 0
  - name: 
    cost: 0
  - name: 
    cost: 1
  - name: 
    cost: 1
  - name: 
    cost: 1
  - name: 
    cost: 1
  - name: 
    cost: 1
  - name: 
    cost: 1
  - name: 
    cost: 1
  - name: 
    cost: 1
  - name: 
    cost: 1
  - name: 
    cost: 1
  - name: NotSpawnMoney
    cost: 1
  - name: NotSpawn
    cost: 1
  - name: 
    cost: 1
  - name: 
    cost: 1
  - name: 
    cost: 1
  - name: 
    cost: 1
  - name: 
    cost: 1
  - name: 
    cost: 1
  - name: 
    cost: 1
  - name: Sheep
    cost: 10
  - name: DogArea
    cost: 200
  - name: DogNear
    cost: 1000
  - name: 
    cost: 1
  - name: 
    cost: 1
  - name: 
    cost: 1
  - name: 
    cost: 1
  - name: 
    cost: 1
  m_LastAgentTypeID: 1479372276
  m_Settings:
  - serializedVersion: 2
    agentTypeID: 0
    agentRadius: 0.5
    agentHeight: 2
    agentSlope: 34.3
    agentClimb: 0.75
    ledgeDropHeight: 0
    maxJumpAcrossDistance: 0
    minRegionArea: 2
    manualCellSize: 0
    cellSize: 0.16666667
    manualTileSize: 0
    tileSize: 256
    accuratePlacement: 0
    debug:
      m_Flags: 0
  - serializedVersion: 2
    agentTypeID: -1372625422
    agentRadius: 0.7
    agentHeight: 4.85
    agentSlope: 20
    agentClimb: 1.37
    ledgeDropHeight: 0
    maxJumpAcrossDistance: 0
    minRegionArea: 2
    manualCellSize: 0
    cellSize: 0.16666667
    manualTileSize: 0
    tileSize: 256
    accuratePlacement: 0
    debug:
      m_Flags: 0
  - serializedVersion: 2
    agentTypeID: -334000983
    agentRadius: 5
    agentHeight: 5
    agentSlope: 45
    agentClimb: 0.5
    ledgeDropHeight: 0
    maxJumpAcrossDistance: 0
    minRegionArea: 2
    manualCellSize: 0
    cellSize: 0.16666667
    manualTileSize: 0
    tileSize: 256
    accuratePlacement: 0
    debug:
      m_Flags: 0
  - serializedVersion: 2
    agentTypeID: 1479372276
    agentRadius: 2
    agentHeight: 2
    agentSlope: 45
    agentClimb: 0.4
    ledgeDropHeight: 0
    maxJumpAcrossDistance: 0
    minRegionArea: 2
    manualCellSize: 0
    cellSize: 0.16666667
    manualTileSize: 0
    tileSize: 256
    accuratePlacement: 0
    debug:
      m_Flags: 0
  m_SettingNames:
  - Humanoid
  - Sheep
  - Dog
  - BadCow
