%YAML 1.1
%TAG !u! tag:unity3d.com,2011:
--- !u!114 &7386583715854173819
MonoBehaviour:
  m_ObjectHideFlags: 0
  m_CorrespondingSourceObject: {fileID: 0}
  m_PrefabInstance: {fileID: 0}
  m_PrefabAsset: {fileID: 0}
  m_GameObject: {fileID: 800456543386210409}
  m_Enabled: 1
  m_EditorHideFlags: 0
  m_Script: {fileID: 11500000, guid: 7b3ee14c2e824534da6ff3b0a130ea28, type: 3}
  m_Name: 
  m_EditorClassIdentifier: 
  UniversalMaterial: {fileID: 2100000, guid: a7f3bb61c6a7cd842b7315c3f4d92766, type: 2}
  UniversalTextureMaterial: {fileID: 2100000, guid: 450b127417d27894d8f370bfbc0f4aa5,
    type: 2}
  Materials:
  - ColorShader: {r: 0.3529412, g: 0.77254903, b: 0.21568628, a: 1}
    Metallic: 0.13
  - ColorShader: {r: 0.5882353, g: 0.19607843, b: 0.011764706, a: 1}
    Metallic: 0.178
--- !u!1 &4330898327333536937
GameObject:
  m_ObjectHideFlags: 0
  m_CorrespondingSourceObject: {fileID: 0}
  m_PrefabInstance: {fileID: 0}
  m_PrefabAsset: {fileID: 0}
  serializedVersion: 6
  m_Component:
  - component: {fileID: 3369525315100848513}
  - component: {fileID: 9139315165553229922}
  m_Layer: 11
  m_Name: Block1
  m_TagString: Untagged
  m_Icon: {fileID: 0}
  m_NavMeshLayer: 0
  m_StaticEditorFlags: 0
  m_IsActive: 1
--- !u!4 &3369525315100848513
Transform:
  m_ObjectHideFlags: 0
  m_CorrespondingSourceObject: {fileID: 0}
  m_PrefabInstance: {fileID: 0}
  m_PrefabAsset: {fileID: 0}
  m_GameObject: {fileID: 4330898327333536937}
  m_LocalRotation: {x: 0, y: 0, z: 0, w: 1}
  m_LocalPosition: {x: 0, y: 0, z: 0}
  m_LocalScale: {x: 1, y: 1, z: 1}
  m_Children:
  - {fileID: 800456543386176585}
  m_Father: {fileID: 0}
  m_RootOrder: 0
  m_LocalEulerAnglesHint: {x: 0, y: 0, z: 0}
--- !u!114 &9139315165553229922
MonoBehaviour:
  m_ObjectHideFlags: 0
  m_CorrespondingSourceObject: {fileID: 0}
  m_PrefabInstance: {fileID: 0}
  m_PrefabAsset: {fileID: 0}
  m_GameObject: {fileID: 4330898327333536937}
  m_Enabled: 1
  m_EditorHideFlags: 0
  m_Script: {fileID: 11500000, guid: dad6d69b924bf724ab911f976dd9d439, type: 3}
  m_Name: 
  m_EditorClassIdentifier: 
  useRoundY: 0
  useRound: 1
  round: 4
--- !u!1001 &800456543386310345
PrefabInstance:
  m_ObjectHideFlags: 0
  serializedVersion: 2
  m_Modification:
    m_TransformParent: {fileID: 3369525315100848513}
    m_Modifications:
    - target: {fileID: 100000, guid: 21517f0519c640847bbf0a519d040ee9, type: 3}
      propertyPath: m_Name
      value: _1
      objectReference: {fileID: 0}
    - target: {fileID: 100000, guid: 21517f0519c640847bbf0a519d040ee9, type: 3}
      propertyPath: m_Layer
      value: 11
      objectReference: {fileID: 0}
    - target: {fileID: 400000, guid: 21517f0519c640847bbf0a519d040ee9, type: 3}
      propertyPath: m_LocalPosition.x
      value: 0
      objectReference: {fileID: 0}
    - target: {fileID: 400000, guid: 21517f0519c640847bbf0a519d040ee9, type: 3}
      propertyPath: m_LocalPosition.y
      value: 0
      objectReference: {fileID: 0}
    - target: {fileID: 400000, guid: 21517f0519c640847bbf0a519d040ee9, type: 3}
      propertyPath: m_LocalPosition.z
      value: 0
      objectReference: {fileID: 0}
    - target: {fileID: 400000, guid: 21517f0519c640847bbf0a519d040ee9, type: 3}
      propertyPath: m_LocalRotation.x
      value: -0.7071068
      objectReference: {fileID: 0}
    - target: {fileID: 400000, guid: 21517f0519c640847bbf0a519d040ee9, type: 3}
      propertyPath: m_LocalRotation.y
      value: 0
      objectReference: {fileID: 0}
    - target: {fileID: 400000, guid: 21517f0519c640847bbf0a519d040ee9, type: 3}
      propertyPath: m_LocalRotation.z
      value: 0
      objectReference: {fileID: 0}
    - target: {fileID: 400000, guid: 21517f0519c640847bbf0a519d040ee9, type: 3}
      propertyPath: m_LocalRotation.w
      value: 0.7071068
      objectReference: {fileID: 0}
    - target: {fileID: 400000, guid: 21517f0519c640847bbf0a519d040ee9, type: 3}
      propertyPath: m_RootOrder
      value: 0
      objectReference: {fileID: 0}
    - target: {fileID: 400000, guid: 21517f0519c640847bbf0a519d040ee9, type: 3}
      propertyPath: m_LocalEulerAnglesHint.x
      value: -90
      objectReference: {fileID: 0}
    - target: {fileID: 400000, guid: 21517f0519c640847bbf0a519d040ee9, type: 3}
      propertyPath: m_LocalEulerAnglesHint.y
      value: 0
      objectReference: {fileID: 0}
    - target: {fileID: 400000, guid: 21517f0519c640847bbf0a519d040ee9, type: 3}
      propertyPath: m_LocalEulerAnglesHint.z
      value: 0
      objectReference: {fileID: 0}
    - target: {fileID: 400000, guid: 21517f0519c640847bbf0a519d040ee9, type: 3}
      propertyPath: m_LocalScale.x
      value: 1
      objectReference: {fileID: 0}
    - target: {fileID: 400000, guid: 21517f0519c640847bbf0a519d040ee9, type: 3}
      propertyPath: m_LocalScale.y
      value: 1
      objectReference: {fileID: 0}
    - target: {fileID: 400000, guid: 21517f0519c640847bbf0a519d040ee9, type: 3}
      propertyPath: m_LocalScale.z
      value: 1
      objectReference: {fileID: 0}
    - target: {fileID: 2300000, guid: 21517f0519c640847bbf0a519d040ee9, type: 3}
      propertyPath: m_Materials.Array.data[0]
      value: 
      objectReference: {fileID: 2100000, guid: 450b127417d27894d8f370bfbc0f4aa5, type: 2}
    - target: {fileID: 2300000, guid: 21517f0519c640847bbf0a519d040ee9, type: 3}
      propertyPath: m_Materials.Array.data[1]
      value: 
      objectReference: {fileID: 2100000, guid: a7f3bb61c6a7cd842b7315c3f4d92766, type: 2}
    - target: {fileID: 2300000, guid: 21517f0519c640847bbf0a519d040ee9, type: 3}
      propertyPath: m_CastShadows
      value: 0
      objectReference: {fileID: 0}
    m_RemovedComponents: []
  m_SourcePrefab: {fileID: 100100000, guid: 21517f0519c640847bbf0a519d040ee9, type: 3}
--- !u!1 &800456543386210409 stripped
GameObject:
  m_CorrespondingSourceObject: {fileID: 100000, guid: 21517f0519c640847bbf0a519d040ee9,
    type: 3}
  m_PrefabInstance: {fileID: 800456543386310345}
  m_PrefabAsset: {fileID: 0}
--- !u!4 &800456543386176585 stripped
Transform:
  m_CorrespondingSourceObject: {fileID: 400000, guid: 21517f0519c640847bbf0a519d040ee9,
    type: 3}
  m_PrefabInstance: {fileID: 800456543386310345}
  m_PrefabAsset: {fileID: 0}
